\relax 
\citation{glass}
\citation{archcomm}
\citation{Jassowski12}
\citation{Faludi2006}
\citation{congruence}
\citation{sna}
\citation{ossslr}
\citation{nagappan08}
\citation{ossslr}
\citation{conway1968}
\citation{KwanCD12}
\citation{herbsleb1999beyondconwayslaw}
\citation{paperaranda2008}
\citation{bh98}
\citation{HerbslebG99}
\citation{SyeedH13}
\citation{colfer2010mirroring}
\citation{ossslr}
\citation{icgseoss}
\citation{specissue}
\citation{Moha2010}
\citation{Bertran11}
\citation{archcomm}
\citation{archcomm}
\citation{jisaspecissue}
\@LN@col{1}
\@writefile{toc}{\contentsline {section}{\numberline {1}Introduction}{1}}
\newlabel{sec:introduction}{{1}{1}}
\@LN@col{2}
\citation{SchwaberBeedle02}
\citation{Baham16}
\citation{IivariI10}
\citation{QuintanePRM13}
\citation{WangK01}
\citation{Chatha2003}
\citation{NevoW05}
\citation{ossslr}
\@LN@col{1}
\@LN@col{2}
\@writefile{toc}{\contentsline {section}{\numberline {2}Background and Scope of Our Study}{2}}
\newlabel{bg}{{2}{2}}
\@writefile{toc}{\contentsline {subsection}{\numberline {2.1}Organisational Structures and Their Research}{2}}
\newlabel{struct}{{2.1}{2}}
\citation{ossslr}
\citation{ossslr}
\citation{archcomm}
\citation{ossslr}
\citation{specissue}
\citation{specissue}
\citation{icgseoss}
\citation{ossslr}
\citation{situated}
\citation{Ruikar2009}
\citation{Cross2005}
\citation{ossslr}
\citation{ossslr}
\citation{Ruikar2009}
\citation{ossslr}
\citation{Ruuska2003}
\citation{ErikAndriessen2005}
\citation{Cross2005}
\citation{kazmanbook}
\@LN@col{1}
\@LN@col{2}
\@writefile{toc}{\contentsline {subsection}{\numberline {2.2}Software Architectures}{3}}
\newlabel{arch}{{2.2}{3}}
\citation{gnatzy2011delphi}
\@writefile{lot}{\contentsline {table}{\numberline {1}{\ignorespaces Organisational structure patterns, an overview.}}{4}}
\newlabel{overview}{{1}{4}}
\@LN@col{1}
\@LN@col{2}
\@writefile{toc}{\contentsline {section}{\numberline {3}Research Design}{4}}
\newlabel{rd}{{3}{4}}
\citation{0029933}
\citation{cmmi}
\citation{soa}
\citation{gnatzy2011delphi}
\citation{ossslr}
\citation{Svensson2012}
\citation{archcomm}
\@LN@col{1}
\@writefile{toc}{\contentsline {subsection}{\numberline {3.1}Target Population and Sampling Strategy}{5}}
\@writefile{toc}{\contentsline {subsection}{\numberline {3.2}Phases 1 and 2 - Survey Design and Execution}{5}}
\newlabel{desex}{{3.2}{5}}
\@LN@col{2}
\@writefile{lof}{\contentsline {figure}{\numberline {1}{\ignorespaces A voting system for question triangulation (Q1,2,3) and identifier elicitation (ID$_1$) - a YES is associated to the presence of the identifier ID$_1$ only if (at least) 2 questions are responded positively for that identifier.}}{5}}
\newlabel{voting}{{1}{5}}
\@writefile{toc}{\contentsline {subsection}{\numberline {3.3}Phase 3 - Confirmatory Interviews}{5}}
\citation{krippendorff04}
\citation{specissue}
\citation{MatsubaraH14}
\@LN@col{1}
\@writefile{lof}{\contentsline {figure}{\numberline {2}{\ignorespaces Organisational structure types and their primary/secondary characteristics.}}{6}}
\newlabel{outline}{{2}{6}}
\@writefile{toc}{\contentsline {subsection}{\numberline {3.4}Data Synthesis and\\ Observer Reliability Assessment}{6}}
\@writefile{toc}{\contentsline {subsection}{\numberline {3.5}Data Analysis}{6}}
\@LN@col{2}
\@writefile{lof}{\contentsline {figure}{\numberline {3}{\ignorespaces A decision-tree for organisational structures - node-names vary to provide a compact visualization.}}{6}}
\newlabel{tree}{{3}{6}}
\citation{vanVliet03}
\citation{situatedness}
\@LN@col{1}
\@writefile{lof}{\contentsline {figure}{\numberline {4}{\ignorespaces Age across our sample.}}{7}}
\newlabel{age}{{4}{7}}
\@writefile{lof}{\contentsline {figure}{\numberline {5}{\ignorespaces Participant roles across our sample.}}{7}}
\newlabel{role}{{5}{7}}
\@writefile{toc}{\contentsline {section}{\numberline {4}Results}{7}}
\newlabel{res}{{4}{7}}
\@writefile{toc}{\contentsline {subsection}{\numberline {4.1}Population Description}{7}}
\@writefile{toc}{\contentsline {subsection}{\numberline {4.2}Organisational Characteristics}{7}}
\@LN@col{2}
\@writefile{lof}{\contentsline {figure}{\numberline {6}{\ignorespaces Team-size across our sample.}}{7}}
\newlabel{size}{{6}{7}}
\@writefile{lof}{\contentsline {figure}{\numberline {7}{\ignorespaces Team-age across our sample.}}{7}}
\newlabel{teamage}{{7}{7}}
\@writefile{lof}{\contentsline {figure}{\numberline {8}{\ignorespaces Most frequent organisational characteristics in our dataset.}}{7}}
\newlabel{orgchar}{{8}{7}}
\citation{Polk11}
\citation{ossslr}
\citation{Wenger:1998}
\citation{RamchandP12}
\citation{ossslr}
\citation{Prikladnicki12}
\citation{BjarnasonSER16}
\citation{ossslr}
\@LN@col{1}
\@writefile{lof}{\contentsline {figure}{\numberline {9}{\ignorespaces Most frequent organisational types emerged from characteristics in Fig. 8\hbox {}.}}{8}}
\newlabel{treetyping}{{9}{8}}
\@writefile{toc}{\contentsline {subsection}{\numberline {4.3}Architecture Issues}{8}}
\@writefile{toc}{\contentsline {section}{\numberline {5}Discussion}{8}}
\newlabel{disc}{{5}{8}}
\@LN@col{2}
\@writefile{toc}{\contentsline {subsection}{\numberline {5.1}Organisational Structure Patterns\\ from the Software Engineering ``Trenches"}{8}}
\newlabel{patternsfinal}{{5.1}{8}}
\@writefile{toc}{\contentsline {subsubsection}{\numberline {5.1.1}Formally-Networked Informal CoPs (CoP,FN,IC)}{8}}
\@writefile{toc}{\contentsline {subsubsection}{\numberline {5.1.2}Formally-Networked, Distributed Informal Communities (IN,IC,FN)}{8}}
\citation{ossslr}
\@writefile{lof}{\contentsline {figure}{\numberline {10}{\ignorespaces Most frequent software architecture issues in our dataset.}}{9}}
\newlabel{archissues}{{10}{9}}
\@LN@col{1}
\@writefile{lof}{\contentsline {figure}{\numberline {11}{\ignorespaces Organisational Structure Patterns in Software Engineering, an overview.}}{9}}
\newlabel{orgpat}{{11}{9}}
\@writefile{lof}{\contentsline {figure}{\numberline {12}{\ignorespaces Pattern 1 - Formally-Networked Informal CoPs.}}{9}}
\newlabel{p1}{{12}{9}}
\@LN@col{2}
\@writefile{lof}{\contentsline {figure}{\numberline {13}{\ignorespaces Pattern 2 - Formally-Networked, Distributed Informal Communities.}}{9}}
\newlabel{p2}{{13}{9}}
\@writefile{toc}{\contentsline {subsubsection}{\numberline {5.1.3}Formally-Networked, Informal Project Teams (FN,IC,PT)}{9}}
\citation{rel2}
\citation{situatedness}
\citation{MaranzatoNH11}
\citation{PaasivaaraLH12}
\@LN@col{1}
\@writefile{lof}{\contentsline {figure}{\numberline {14}{\ignorespaces Pattern 3 - FN,IC,PT.}}{10}}
\newlabel{p3}{{14}{10}}
\@writefile{toc}{\contentsline {subsubsection}{\numberline {5.1.4}Informally-Networked, Situated, Informal Working Groups (CoP,IN,IC,WG)}{10}}
\@LN@col{2}
\@writefile{lof}{\contentsline {figure}{\numberline {15}{\ignorespaces [Top Recurring Pattern] - Informally-Networked, Co-Located, Informal Working Groups.}}{10}}
\newlabel{p4}{{15}{10}}
\@writefile{toc}{\contentsline {subsubsection}{\numberline {5.1.5}Informally-Networked, Informal Working-Groups (IN,IC,WG)}{10}}
\@writefile{toc}{\contentsline {subsubsection}{\numberline {5.1.6}Problem-Solving, Situated, Informal Working Groups (CoP,IC,WG,PSC)}{10}}
\citation{icgseoss}
\citation{commflow}
\citation{valbook}
\citation{conway}
\citation{colfer2010mirroring}
\citation{colfer2010mirroring}
\@writefile{lof}{\contentsline {figure}{\numberline {16}{\ignorespaces Networked, Informal Community of Practices.}}{11}}
\newlabel{q5}{{16}{11}}
\@LN@col{1}
\@writefile{toc}{\contentsline {subsubsection}{\numberline {5.1.7}Networked, Informal Community of Practice (CoP,IN,NoP)}{11}}
\@writefile{toc}{\contentsline {subsection}{\numberline {5.2}Quantitative Analysis}{11}}
\newlabel{quant}{{5.2}{11}}
\@writefile{toc}{\contentsline {subsubsection}{\numberline {5.2.1}Addressing Conjecture 1: characterising the empirical relation behind Conway's law}{11}}
\newlabel{relation}{{5.2.1}{11}}
\@LN@col{2}
\@writefile{lof}{\contentsline {figure}{\numberline {17}{\ignorespaces Architecture inefficiency, an overview for reported patterns.}}{11}}
\newlabel{patterneffic}{{17}{11}}
\citation{QuintanePRM13}
\citation{WangK01}
\citation{wohlin}
\@LN@col{1}
\@writefile{lof}{\contentsline {figure}{\numberline {18}{\ignorespaces Architecture inefficiency (darker curve in the bottom-half) vs. Team-age (clearer curve in the top half).}}{12}}
\newlabel{archeffic}{{18}{12}}
\@writefile{toc}{\contentsline {subsubsection}{\numberline {5.2.2}Addressing Conjecture 2: An organisational evolution model for software organisational structures}{12}}
\newlabel{evol}{{5.2.2}{12}}
\@LN@col{2}
\@writefile{lof}{\contentsline {figure}{\numberline {19}{\ignorespaces Team-age trendlines on ordered patterns - highest recurring pattern is right at the center of two outgoing trendlines towards: (a) formality (bottom-half); (b) informality (top-half).}}{12}}
\newlabel{trendlines}{{19}{12}}
\@writefile{toc}{\contentsline {subsection}{\numberline {5.3}Limitations and Threats to Validity}{12}}
\newlabel{threats}{{5.3}{12}}
\@writefile{toc}{\contentsline {subsubsection}{\numberline {5.3.1}Internal and Sampling Validity}{12}}
\citation{colfer2010mirroring}
\citation{dsm}
\citation{KwanCD12}
\citation{herbsleb1999beyondconwayslaw}
\citation{CataldoHC08}
\citation{TorchianoRM11}
\citation{cacmqualcomm}
\citation{Brown10debt}
\citation{Kazman15debt}
\citation{alonetogether}
\citation{MoonH14}
\@LN@col{1}
\@writefile{lof}{\contentsline {figure}{\numberline {20}{\ignorespaces An organisational evolution model for modern software engineering teams and organisations - the entry-point is pattern P4 while other patterns represent intermediate ages.}}{13}}
\newlabel{divergence}{{20}{13}}
\@writefile{toc}{\contentsline {subsubsection}{\numberline {5.3.2}Construct and External Validity}{13}}
\@writefile{toc}{\contentsline {subsubsection}{\numberline {5.3.3}Conclusion Validity}{13}}
\@writefile{toc}{\contentsline {section}{\numberline {6}Related Work}{13}}
\newlabel{rel}{{6}{13}}
\@LN@col{2}
\@writefile{toc}{\contentsline {section}{\numberline {7}Conclusion}{13}}
\newlabel{conc}{{7}{13}}
\@writefile{toc}{\contentsline {subsection}{\numberline {7.1}Research Questions}{13}}
\bibstyle{IEEEtran}
\bibdata{smells}
\bibcite{glass}{1}
\bibcite{archcomm}{2}
\bibcite{Jassowski12}{3}
\bibcite{Faludi2006}{4}
\bibcite{congruence}{5}
\bibcite{sna}{6}
\bibcite{ossslr}{7}
\bibcite{nagappan08}{8}
\bibcite{conway1968}{9}
\bibcite{KwanCD12}{10}
\bibcite{herbsleb1999beyondconwayslaw}{11}
\bibcite{paperaranda2008}{12}
\bibcite{bh98}{13}
\bibcite{HerbslebG99}{14}
\bibcite{SyeedH13}{15}
\bibcite{colfer2010mirroring}{16}
\bibcite{icgseoss}{17}
\bibcite{specissue}{18}
\bibcite{Moha2010}{19}
\bibcite{Bertran11}{20}
\bibcite{jisaspecissue}{21}
\bibcite{SchwaberBeedle02}{22}
\bibcite{Baham16}{23}
\bibcite{IivariI10}{24}
\bibcite{QuintanePRM13}{25}
\bibcite{WangK01}{26}
\@LN@col{1}
\@writefile{toc}{\contentsline {subsection}{\numberline {7.2}Future Work}{14}}
\@writefile{toc}{\contentsline {section}{References}{14}}
\@LN@col{2}
\bibcite{Chatha2003}{27}
\bibcite{NevoW05}{28}
\bibcite{situated}{29}
\bibcite{Ruikar2009}{30}
\bibcite{Cross2005}{31}
\bibcite{Ruuska2003}{32}
\bibcite{ErikAndriessen2005}{33}
\bibcite{kazmanbook}{34}
\bibcite{gnatzy2011delphi}{35}
\bibcite{0029933}{36}
\bibcite{cmmi}{37}
\bibcite{soa}{38}
\bibcite{Svensson2012}{39}
\bibcite{krippendorff04}{40}
\bibcite{MatsubaraH14}{41}
\bibcite{vanVliet03}{42}
\bibcite{situatedness}{43}
\bibcite{Polk11}{44}
\bibcite{Wenger:1998}{45}
\bibcite{RamchandP12}{46}
\bibcite{Prikladnicki12}{47}
\bibcite{BjarnasonSER16}{48}
\bibcite{rel2}{49}
\bibcite{MaranzatoNH11}{50}
\bibcite{PaasivaaraLH12}{51}
\bibcite{commflow}{52}
\bibcite{valbook}{53}
\bibcite{conway}{54}
\bibcite{wohlin}{55}
\bibcite{dsm}{56}
\bibcite{CataldoHC08}{57}
\bibcite{TorchianoRM11}{58}
\bibcite{cacmqualcomm}{59}
\bibcite{Brown10debt}{60}
\bibcite{Kazman15debt}{61}
\bibcite{alonetogether}{62}
\bibcite{MoonH14}{63}
\@LN@col{1}
\@LN@col{2}
\@LN@col{1}
\@writefile{toc}{\contentsline {section}{Biographies}{16}}
\@writefile{toc}{\contentsline {subsection}{Damian A. Tamburri}{16}}
\@writefile{toc}{\contentsline {subsection}{Rocco Oliveto}{16}}
\@writefile{toc}{\contentsline {subsection}{Rick Kazman}{16}}
\@writefile{toc}{\contentsline {subsection}{Hamed Fahimi}{16}}
\@LN@col{2}
\@writefile{lot}{\contentsline {table}{\numberline {2}{\ignorespaces Outline of the sets of types (Columns 2 to 9) detected via decision-tree analysis mapped to our datapoints (Column 1).}}{17}}
\newlabel{results}{{2}{17}}
\@writefile{lot}{\contentsline {table}{\numberline {3}{\ignorespaces reported architecture issues (columns 2 and following) per datapoint (column 1), an overview.}}{17}}
\newlabel{issuesoverview}{{3}{17}}
